{
  "response": {
    "status": "ok",
    "userTier": "developer",
    "total": 2075242,
    "startIndex": 1,
    "pageSize": 10,
    "currentPage": 1,
    "pages": 207525,
    "orderBy": "newest",
    "results": [
      {
        "id": "football/live/2018/nov/18/everton-v-arsenal-womens-super-league-live",
        "type": "liveblog",
        "sectionId": "football",
        "sectionName": "Football",
        "webPublicationDate": "2018-11-18T13:38:00Z",
        "webTitle": "Everton v Arsenal: Women's Super League – live!",
        "webUrl": "https://www.theguardian.com/football/live/2018/nov/18/everton-v-arsenal-womens-super-league-live",
        "apiUrl": "https://content.guardianapis.com/football/live/2018/nov/18/everton-v-arsenal-womens-super-league-live",
        "isHosted": false,
        "pillarId": "pillar/sport",
        "pillarName": "Sport"
      },
      {
        "id": "politics/2018/nov/18/toppling-me-wont-help-brexit-may-tells-rebel-tory-mps",
        "type": "article",
        "sectionId": "politics",
        "sectionName": "Politics",
        "webPublicationDate": "2018-11-18T13:29:51Z",
        "webTitle": "Brexit: toppling me won't help negotiations, May tells rebel Tory MPs",
        "webUrl": "https://www.theguardian.com/politics/2018/nov/18/toppling-me-wont-help-brexit-may-tells-rebel-tory-mps",
        "apiUrl": "https://content.guardianapis.com/politics/2018/nov/18/toppling-me-wont-help-brexit-may-tells-rebel-tory-mps",
        "isHosted": false,
        "pillarId": "pillar/news",
        "pillarName": "News"
      },
      {
        "id": "sport/2018/nov/18/gareth-thomas-victim-homophobic-attack-cardiff-wales",
        "type": "article",
        "sectionId": "sport",
        "sectionName": "Sport",
        "webPublicationDate": "2018-11-18T13:18:40Z",
        "webTitle": "Gareth Thomas says he was victim of homophobic attack in Cardiff",
        "webUrl": "https://www.theguardian.com/sport/2018/nov/18/gareth-thomas-victim-homophobic-attack-cardiff-wales",
        "apiUrl": "https://content.guardianapis.com/sport/2018/nov/18/gareth-thomas-victim-homophobic-attack-cardiff-wales",
        "isHosted": false,
        "pillarId": "pillar/sport",
        "pillarName": "Sport"
      },
      {
        "id": "politics/live/2018/nov/18/theresa-may-brexit-jeremy-corbyn-eu-live",
        "type": "liveblog",
        "sectionId": "politics",
        "sectionName": "Politics",
        "webPublicationDate": "2018-11-18T13:04:22Z",
        "webTitle": "Theresa May to visit Brussels this week as she defends Brexit deal – Politics live",
        "webUrl": "https://www.theguardian.com/politics/live/2018/nov/18/theresa-may-brexit-jeremy-corbyn-eu-live",
        "apiUrl": "https://content.guardianapis.com/politics/live/2018/nov/18/theresa-may-brexit-jeremy-corbyn-eu-live",
        "isHosted": false,
        "pillarId": "pillar/news",
        "pillarName": "News"
      },
      {
        "id": "commentisfree/2018/nov/18/gaslighting-gammon-year-buzzwords-oxford-dictionaries",
        "type": "article",
        "sectionId": "commentisfree",
        "sectionName": "Opinion",
        "webPublicationDate": "2018-11-18T13:04:05Z",
        "webTitle": "From gaslighting to gammon, 2018’s buzzwords reflect our toxic times | Emma Brockes",
        "webUrl": "https://www.theguardian.com/commentisfree/2018/nov/18/gaslighting-gammon-year-buzzwords-oxford-dictionaries",
        "apiUrl": "https://content.guardianapis.com/commentisfree/2018/nov/18/gaslighting-gammon-year-buzzwords-oxford-dictionaries",
        "isHosted": false,
        "pillarId": "pillar/opinion",
        "pillarName": "Opinion"
      },
      {
        "id": "books/2018/nov/18/frieda-original-lady-chatterley-review-annabel-abbs-dh-lawrence",
        "type": "article",
        "sectionId": "books",
        "sectionName": "Books",
        "webPublicationDate": "2018-11-18T13:00:00Z",
        "webTitle": "Frieda: The Original Lady Chatterley by Annabel Abbs review – DH Lawrence’s muse",
        "webUrl": "https://www.theguardian.com/books/2018/nov/18/frieda-original-lady-chatterley-review-annabel-abbs-dh-lawrence",
        "apiUrl": "https://content.guardianapis.com/books/2018/nov/18/frieda-original-lady-chatterley-review-annabel-abbs-dh-lawrence",
        "isHosted": false,
        "pillarId": "pillar/arts",
        "pillarName": "Arts"
      },
      {
        "id": "world/2018/nov/18/jair-bolsonaro-election-sparks-fears-for-brazil-biodiversity",
        "type": "article",
        "sectionId": "world",
        "sectionName": "World news",
        "webPublicationDate": "2018-11-18T12:37:04Z",
        "webTitle": "Jair Bolsonaro's rise to power casts shadow over UN environment conference",
        "webUrl": "https://www.theguardian.com/world/2018/nov/18/jair-bolsonaro-election-sparks-fears-for-brazil-biodiversity",
        "apiUrl": "https://content.guardianapis.com/world/2018/nov/18/jair-bolsonaro-election-sparks-fears-for-brazil-biodiversity",
        "isHosted": false,
        "pillarId": "pillar/news",
        "pillarName": "News"
      },
      {
        "id": "politics/2018/nov/18/jeremy-corbyn-second-referendum-not-an-option-for-today",
        "type": "article",
        "sectionId": "politics",
        "sectionName": "Politics",
        "webPublicationDate": "2018-11-18T12:28:43Z",
        "webTitle": "Jeremy Corbyn: second referendum not an option for today",
        "webUrl": "https://www.theguardian.com/politics/2018/nov/18/jeremy-corbyn-second-referendum-not-an-option-for-today",
        "apiUrl": "https://content.guardianapis.com/politics/2018/nov/18/jeremy-corbyn-second-referendum-not-an-option-for-today",
        "isHosted": false,
        "pillarId": "pillar/news",
        "pillarName": "News"
      },
      {
        "id": "lifeandstyle/2018/nov/18/rear-view-the-big-business-of-bottoms",
        "type": "article",
        "sectionId": "lifeandstyle",
        "sectionName": "Life and style",
        "webPublicationDate": "2018-11-18T12:00:03Z",
        "webTitle": "Rear view: the big business of bottoms",
        "webUrl": "https://www.theguardian.com/lifeandstyle/2018/nov/18/rear-view-the-big-business-of-bottoms",
        "apiUrl": "https://content.guardianapis.com/lifeandstyle/2018/nov/18/rear-view-the-big-business-of-bottoms",
        "isHosted": false,
        "pillarId": "pillar/lifestyle",
        "pillarName": "Lifestyle"
      },
      {
        "id": "food/ng-interactive/2018/nov/18/christmas-gift-ideas-for-food-lovers-2018",
        "type": "interactive",
        "sectionId": "food",
        "sectionName": "Food",
        "webPublicationDate": "2018-11-18T11:30:03Z",
        "webTitle": "Christmas gift ideas for food lovers 2018",
        "webUrl": "https://www.theguardian.com/food/ng-interactive/2018/nov/18/christmas-gift-ideas-for-food-lovers-2018",
        "apiUrl": "https://content.guardianapis.com/food/ng-interactive/2018/nov/18/christmas-gift-ideas-for-food-lovers-2018",
        "isHosted": false,
        "pillarId": "pillar/lifestyle",
        "pillarName": "Lifestyle"
      }
    ]
  }
}
